HTTP/1.1 200 OK
Date: Sun, 05 Feb 2012 16:25:08 GMT
Server: Apache/2.2.16 (Debian)
X-Powered-By: PHP/5.3.3-7+squeeze3
Last-Modified: Sun, 05 Feb 2012 16:25:08 GMT
Vary: Accept-Encoding
Content-Type: text/html

